…
    ##      prcp      snow      snwd      tmax      tmin 
    ## 0.0561958 0.1468960 0.2280331 0.4371025 0.4371264

``` r
# check to see what trends exist for missing temperature data
ny_noaa_cleaned %>%
  filter(is.na(tmin)) %>%
  group_by(id) %>%
  count %>%
  arrange(desc(n))
```

    ## # A tibble: 728 x 2
    ## # Groups:   id [728]
    ##    id              n
    ##    <chr>       <int>
    ##  1 USC00304772 10957
    ##  2 USC00306196 10957
    ##  3 USC00309425 10957
    ##  4 USC00303851 10926
    ##  5 USC00306745 10926
    ##  6 USC00301580 10896
    ##  7 USC00303983 10896
    ##  8 USC00305679 10870
    ##  9 USC00301265 10866
    ## 10 USC00305925 10866
    ## # ... with 718 more rows
…
